11085 571404 470
620245 935082 525
204698 154946 383
873736 142137 525
11827 455576 449
864161 805296 525
14668 865197 525
590021 833433 509
940341 324156 525
341841 191935 443
413033 239567 449
908042 725642 525
238388 227637 443
585105 247865 470
554818 68173 470
216957 813187 509
677247 398436 509
103383 405560 443
782659 685596 504
341284 450599 449
988727 34220 525
369059 501357 449
119263 935289 525
12087 690453 509
688223 588051 509
584107 205241 470
347778 598889 470
885601 410345 525
267800 236497 407
297033 998780 525
840304 600410 525
916851 393696 525
516561 511148 470
284892 53220 443
446644 809446 509
235687 346145 441
589986 171265 470
315572 658011 509
819386 714845 468
988466 722111 525
259040 463540 449
475081 455953 444
149576 990731 525
373686 619009 470
180658 227380 386
588395 646254 509
411898 469338 444
149433 562162 470
475339 929723 525
674144 993226 525
988582 221514 525
233826 579758 470
468326 500464 426
366216 701315 509
563207 519328 452
735635 787568 468
158786 147120 383
872311 790082 525
732764 729535 380
956211 676558 525
577203 525378 452
235868 254811 368
644735 752767 504
882540 1098 525
921750 424093 525
446841 783361 509
949891 847170 507
745109 986564 525
731043 559595 509
24708 487462 449
87516 651856 509
775749 563409 509
705597 358136 509
343416 120888 443
854579 943712 507
558187 21683 470
924236 681312 525
57989 645731 509
394951 794204 509
720721 738112 424
442550 441030 294
652467 652411 354
809306 623589 509
149029 803858 509
572603 606681 434
176661 123551 383
109148 383731 443
497984 601337 470
31046 671624 509
930418 475318 525
117118 423677 449
247841 45254 443
969524 639677 525
103633 272042 443
321273 733127 509
973933 155545 525
333385 824203 509
627335 566975 509
967696 581538 525
879950 303212 525
240262 734241 509
769808 915084 525
803725 849273 525
414354 842967 525
95963 276167 443
915676 125648 525
338642 207607 443
62122 818758 509
224800 489403 449
947104 924676 507
885282 736887 525
522874 185768 470
266650 890246 525
71206 921803 525
923666 419008 525
274391 759697 509
667823 826072 504
416445 586750 470
799193 667819 504
260927 905326 525
424245 573242 470
284405 833724 509
804897 506715 509
229529 578021 470
230795 334473 407
329497 720194 509
909938 3563 525
632693 766052 504
83595 890465 525
511891 167455 449
531678 904617 525
529146 67808 470
68643 428490 449
351069 865427 525
83324 597312 470
938875 42133 525
872810 162770 525
24646 825403 509
54302 166562 383
712723 103927 509
296507 461544 449
307893 560023 470
325387 420575 449
507286 99770 449
2622 869496 525
113021 660494 509
853406 976087 507
660673 28587 509
417174 631835 509
108517 218443 386
130212 269889 443
670691 199783 509
908671 875105 445
209678 555691 470
937366 883724 476
14553 276114 443
258151 894424 525
74970 362471 443
932290 735446 525
766055 69164 509
894351 112900 525
98435 109055 354
805244 144857 509
821222 138472 509
185164 941228 525
838659 153538 525
434356 301488 449
561466 160014 470
2594 7234 262
296825 176932 443
989076 926617 507
264551 103055 443
363670 404872 436
860562 992186 507
932815 916202 476
352432 191443 443
724178 395438 509
315348 785821 509
912585 485803 525
572652 285891 470
495923 439044 444
313631 96002 443
778753 588802 509
124185 29208 354
132418 188053 383
950944 824586 525
498110 523749 470
990709 790507 525
31217 804747 509
284963 283424 358
928713 535833 525
204770 904694 525
992268 260222 525
26320 995668 525
634971 310638 509
490022 419355 444
64342 905985 525
105329 338690 443
640340 766953 504
764500 2986 509
820965 242255 509
944235 218034 525
605479 622587 447
59379 214905 383
197525 76731 383
502457 728613 509
606568 830779 509
295517 955470 525
711173 917960 525
622085 504196 470
723685 537417 509
412817 706343 509
193474 530025 470
354802 185546 443
423987 212206 449
652860 112875 509
497246 82197 449
755371 610853 509
330724 397247 441
573609 405079 470
588814 750548 509
271028 327094 389
219228 901144 525
97175 30408 351
