333000 444065
536176 509668
336184 630142
886 788522
710594 220844
869369 208047
485725 314782
671736 707124
132624 119101
895498 541491
472443 484750
298357 932049
129008 796053
614941 794507
544993 577510
433106 476898
318397 146813
325538 727847
334266 611460
836074 471835
483957 930549
859466 362067
250983 688232
501028 813181
693719 658308
221284 720516
133366 330033
934221 42058
549177 637089
947490 110661
484947 410936
482261 43446
597026 801344
375044 710923
244689 216360
972675 814846
420726 369277
14588 194264
421538 993899
485686 686707
142576 298159
310618 955213
812141 292953
80146 821906
117030 47770
338057 552991
812004 758008
70492 352749
585298 580069
726276 769782
836520 508629
110900 380183
606363 742067
403874 983193
372769 971539
575337 948784
719616 21923
816643 951250
421129 93870
962639 548696
80776 98191
231388 646224
975522 206801
36799 910715
114350 500455
86441 299441
400223 968345
355837 731629
994335 417447
928514 514772
963347 237507
876043 357602
281811 426064
113129 67199
882039 515733
541334 613455
272627 674301
891245 265531
324203 548167
647534 500111
607289 997411
337557 276062
365854 967609
688052 211121
195926 551121
234968 841263
26083 858748
370108 553182
244889 24217
243555 124087
966614 308312
637684 385687
538196 101221
242546 829017
863393 693427
152613 169770
193749 163408
329528 179788
766578 970862
510156 412508
367110 442946
231256 850837
816141 533184
768670 540138
559606 182802
300030 480912
698863 934500
684585 614679
187585 754756
417142 899202
682540 99139
977169 293484
491062 661522
547443 63564
924651 384043
649406 418467
534239 435605
888315 668804
389418 96256
896601 641113
78935 32586
184805 525988
195114 630174
774407 327995
573977 170596
959298 980587
440368 650380
149723 110314
200539 402982
336674 709276
480263 301185
852665 560514
393495 368154
476306 476146
679562 223390
443435 533930
942930 527359
357348 770729
524946 301879
232218 738298
392480 137677
389177 204760
776785 993363
824823 187560
176337 520775
712199 18213
653961 539489
523609 138147
429589 798866
790027 54140
42766 847313
799123 734182
719009 986027
976236 264275
474139 830219
142104 645271
3174 404366
866555 562953
584191 386851
856011 997441
576885 240320
454284 913770
99411 476280
129949 233915
352809 463057
728057 273784
228819 663179
503467 643734
961245 346623
636636 838134
934764 825000
24554 854938
243363 841827
392993 512113
472329 465468
880374 575211
864615 737902
671919 296888
633350 622670
318816 884766
468174 795971
802992 513632
308458 256191
278525 547888
770147 416441
726915 390102
668563 341862
138569 195806
341515 479363
504446 257541
161124 328320
80438 427426
116481 155656
458524 555243
318098 924427
803395 847500
134329 636617
152102 883127
107924 798191
141219 441982
34999 642100
372651 898070
55890 771993
373677 363355
762079 255150
455198 798781
297854 234552
469166 805429
179029 123014
891019 848753
844416 712370
846602 740868
671721 436609
558578 469066
314368 902781
87630 665879
803534 640575
562581 453893
109479 965890
618718 481406
922488 850725
303874 741097
108759 991538
919656 351295
760923 36079
246009 627227
416110 939045
278280 127709
125357 281858
811286 494857
229117 264065
672734 509594
463534 899536
727613 930323
922847 645169
82081 546563
180555 990349
388748 688659
632692 632484
27802 327341
463757 497375
397697 825613
757442 425938
824798 317193
405989 491297
840807 478137
985821 523303
524912 443586
822822 61321
208965 916842
930135 606478
917991 720572
603196 590682
591482 392128
875 177245
