382394 719632 509
586786 40323 470
788601 709692 468
265968 788969 509
945879 992273 458
786209 926788 525
230726 34293 443
171767 426585 449
115149 985267 525
189671 536857 470
74403 719393 509
933217 59340 525
140724 935444 525
859892 603038 525
561229 101701 470
518794 424141 470
745437 170750 509
588665 394583 470
480870 997045 525
598696 320917 470
367696 881397 525
985819 98703 525
253940 916090 525
503140 958354 525
185533 293807 443
391264 491685 449
811897 168442 509
345079 405936 441
230712 580490 470
746100 683578 504
667276 908530 525
206388 656473 509
16688 94858 351
58588 878185 525
786096 994224 525
141334 164772 383
164635 28838 383
540281 984642 525
114294 386087 443
478814 747245 509
284407 517223 470
338401 471625 449
514257 227940 470
930411 23807 525
110983 939034 525
403963 473738 449
844389 972142 507
584327 375333 470
857539 738409 525
347224 597 443
736956 348741 509
820083 553905 509
17817 451885 449
850870 783243 525
688843 398914 509
531269 358414 470
614099 935224 525
375462 11322 443
535376 935706 525
692415 72180 509
306377 126251 443
595355 353094 470
954750 140832 525
626056 635074 509
373168 828892 509
608947 73018 470
956730 494061 525
753440 217759 509
937831 53145 525
717141 835769 468
435638 621269 470
643419 746030 504
250409 229026 443
399889 759869 509
218769 581605 470
3074 119535 354
620053 347796 470
813963 833280 450
10545 11521 268
802406 867011 525
904968 816231 525
959114 601220 525
788066 36424 509
965915 631307 525
150178 90417 375
828466 663550 504
805392 632764 504
836979 204559 509
876213 519775 525
458816 126948 449
215375 511843 449
569537 931107 525
365182 438770 449
236034 493382 449
753170 802444 468
508492 86778 449
25996 3864 282
65823 699286 509
536644 783101 509
835488 766659 468
284347 204638 443
117630 445271 449
704451 837727 504
951051 448469 525
974396 345740 525
260923 385555 441
489042 260741 449
917277 226753 525
888422 843100 445
75163 588164 470
78579 582711 470
439602 719682 509
364525 305271 441
94979 384301 443
822586 323304 509
768355 31995 509
999828 844906 507
901868 753372 525
985810 488740 525
889624 986185 507
317347 709174 509
461028 917384 525
446665 324110 449
807791 639245 504
652315 391319 509
819528 656298 504
931329 934371 414
421099 349234 449
821425 125302 509
264073 873321 525
731387 396851 509
58436 6689 340
666855 483898 509
368621 742954 509
94005 112390 354
993008 973472 427
925257 236819 525
668296 480680 509
141197 515220 470
172457 781989 509
73257 938500 525
77376 529345 470
724829 779617 468
312053 260615 407
333497 454956 449
986891 632699 525
132305 82130 354
563779 26234 470
693793 380720 509
303358 799620 509
601658 177996 470
633365 115919 509
349927 965238 525
731446 24564 509
436120 702163 509
745510 213385 509
595556 742323 509
922379 580822 525
296206 6042 443
235072 443810 449
741555 3685 509
93325 765319 509
345978 295479 441
810767 447520 509
598887 533954 452
587036 993334 525
768772 864522 525
967918 727872 525
953766 340530 525
433622 70899 449
760788 756750 380
742231 137579 509
669708 865781 525
643884 821116 504
285586 524142 470
81921 35513 351
152600 967826 525
272753 539935 470
538532 36243 470
789176 127777 509
133957 102954 354
255883 926748 525
729295 334861 509
267265 684971 509
833655 597680 509
846736 371356 525
594372 559794 434
533601 461916 470
588449 285736 470
69283 373908 443
947889 96175 525
658741 81481 509
10428 778101 509
713781 419166 509
38398 128497 354
571725 937354 525
835893 383122 509
398642 787760 509
745267 139313 509
128511 85203 354
731025 291442 509
578633 934369 525
599932 811005 509
331224 405801 441
335058 231005 407
400813 723991 509
947304 507309 525
65589 90479 351
576198 938877 525
305974 969592 525
293772 764330 509
14578 426754 449
17836 645250 509
425602 961045 525
846394 574775 525
31177 839661 525
508862 933578 525
683690 685168 380
960330 451927 525
646891 423284 509
340067 901508 525
200428 63828 383
143525 198595 383
191293 442407 449
672246 52097 509
289510 664810 509
218340 882289 525
15897 755424 509
841078 487479 525
984084 429057 525
121403 176579 383
455108 390973 449
872068 505582 525
718771 261792 509
468296 507868 426
192167 749307 509
606618 646723 509
899844 439584 525
176651 850974 525
661425 591556 509
272199 542594 470
225284 176440 386
277422 394192 441
550571 309088 470
270194 386365 441
