538618 586294
365910 620031
854478 384612
984550 605308
834718 29843
364769 250465
676262 369713
999240 809792
424574 963874
460358 198973
587244 910697
466835 367642
274500 217024
527195 428738
778325 414472
379555 993639
253429 309570
664961 419767
901752 57529
997893 111010
393794 33118
104188 134641
172325 870357
675048 692094
338146 775759
106450 631647
269384 361020
97728 182156
789491 778354
308598 660324
274179 888561
21286 865664
994483 242698
870268 156414
523640 726991
973945 357763
450709 975680
822390 235760
270924 921244
554317 173209
813841 448243
57980 567193
482216 468502
610291 453411
574644 214764
489287 414427
797435 468450
219690 27765
841596 629316
774026 185025
303184 933293
488768 335147
115132 849917
50244 367716
454190 396491
765388 750836
286689 272417
977899 284384
242562 272937
386486 300738
30451 203094
585651 264994
652576 595115
815685 739701
333723 415649
828574 120868
540517 21610
552099 12775
59659 264298
293654 970157
288624 943521
8126 603597
161459 568221
700430 668210
851411 895318
320733 217547
151833 523303
940327 651455
346618 763394
567448 456143
901884 23910
203831 878889
155273 583189
338262 674826
830898 659818
368321 321971
821966 872872
56332 365703
70589 588266
686093 375485
535254 368666
369168 390131
80267 344549
940413 986690
109154 357804
940191 275408
430856 581065
806946 609316
891481 242132
954615 1264
17473 87721
750457 374030
952588 791733
316830 824198
602567 919288
449161 745928
627106 631500
894000 957659
92677 295131
853486 338410
820705 46053
716747 769313
720755 236358
699408 745738
604540 978730
354626 401732
140147 941416
688107 264055
299091 155573
739764 477464
148024 749081
756129 783177
566102 507436
384259 667838
327155 221225
960927 717208
165988 654644
169858 598455
461215 927320
434244 600079
412826 242884
354131 558031
637078 174301
601578 655902
823624 38296
184148 176055
391041 879302
65605 46605
912606 228293
567692 90041
46022 398240
925804 997240
153780 634980
641334 76468
450174 126773
95995 510912
775401 235851
741504 8438
545627 805203
290252 839512
621709 315406
206274 236260
627802 801388
854612 223049
529606 496783
328526 468316
521292 503491
929048 63360
960195 469783
300824 39301
844321 895462
208367 726410
565284 40620
25647 545989
575093 703824
253773 196988
11691 267735
882191 114234
841123 740875
454281 325
528623 932485
215928 491880
590167 39424
40103 692324
982477 708120
673134 61123
592232 508792
299708 984307
754426 522382
312891 615712
920666 504898
231827 341926
345764 167743
709871 144659
796781 42970
789630 800612
282273 312293
284031 101164
267655 135881
376440 531707
867523 379551
703246 732766
461832 988699
133040 117239
126285 28805
393044 356675
900297 22700
745757 713461
509976 304058
439925 113299
945372 873824
768609 452603
982270 638051
126798 509089
757933 744076
321643 94577
814901 524757
228793 186788
477076 4277
938750 862691
962275 286519
665419 353282
281665 260194
605916 122381
55755 725454
28404 114537
817021 11754
93387 114390
256101 547398
946998 544893
896111 559730
470038 941124
666300 276361
128081 138828
492386 967711
149375 757055
855496 565670
376370 573940
723088 490955
860305 995996
972278 724012
891208 50335
1889 184468
437286 204372
428661 311521
929877 803112
442436 760746
907680 915612
198189 365296
110990 108310
816950 769521
14695 832386
