71600 983170 525
535440 411048 470
124423 168071 383
891411 737129 525
99957 403195 443
76362 706797 509
473642 90284 449
623095 872315 525
939009 620790 525
754705 125100 509
231673 988900 525
102048 792141 509
286358 801770 509
290041 556073 470
679234 280438 509
74570 120930 354
923917 372587 525
298833 269117 407
263002 681777 509
155554 62165 375
475315 465955 413
127612 640816 509
296363 25358 443
923284 930011 476
68866 887998 525
264580 307861 407
600667 742008 509
362104 121767 443
711219 292883 509
552766 410470 470
564984 825775 509
388693 436500 449
508809 575535 470
77181 652411 509
690105 821851 504
431086 583682 470
856381 307251 525
85963 350749 443
551836 557132 421
449997 899439 525
577076 974456 525
221474 445913 449
31247 702175 509
390240 743835 509
945475 937737 507
807015 200451 509
382201 642811 509
343087 845422 525
544485 648226 509
901916 741982 525
794147 172974 509
788789 246386 509
933365 746705 525
51247 923679 525
155853 915673 525
623854 441620 470
510858 193711 449
807282 460296 509
84492 379098 443
614666 512863 452
632218 72195 509
460445 386304 449
748276 763927 424
507342 658009 509
805897 24480 509
879526 228588 525
999372 629503 525
772670 486814 509
111229 575963 470
884715 914425 476
87961 971027 525
379138 382949 379
292400 949611 525
78118 637434 509
434928 866755 525
20507 227620 386
402254 37825 443
89745 488278 449
148469 713379 509
410650 958156 525
980824 1859 525
144934 840337 525
764421 825437 468
972686 844572 507
735761 667667 504
35051 878599 525
865093 657103 525
766706 334568 509
622652 937514 525
947844 939641 383
394255 408333 405
205340 259037 443
289755 950254 525
96063 29890 351
57634 460783 449
355807 923442 525
821239 138636 509
21164 620540 470
565663 590752 434
349384 415398 449
567627 558002 421
68685 435502 449
57562 710222 509
150422 787902 509
277816 528398 470
256486 688731 509
829916 213972 509
509020 623437 470
941933 893531 507
184959 632077 509
626209 451822 470
908134 188934 525
619834 439151 470
794009 86056 509
208928 140611 383
798078 864045 525
215180 514393 470
70009 134401 354
447179 71988 449
423134 20005 449
419498 747876 509
5724 890336 525
469526 520888 470
250803 427874 449
469313 625445 470
162310 616217 470
977124 137024 525
116002 717401 509
329818 257554 407
380202 980825 525
447637 265328 449
498332 827997 509
769115 546901 509
86970 369967 443
556287 382978 470
867736 936985 476
635135 648476 416
22738 875399 525
158406 786625 509
597417 44139 470
907702 642496 525
323111 562905 470
320366 324862 384
135729 448679 449
735789 329462 509
567562 65616 470
420628 409830 449
101292 261226 443
877949 636057 525
95863 63820 351
172314 16256 383
231084 832908 509
1840 457125 449
253694 184056 443
436300 395049 449
135892 257553 443
716776 827583 468
555812 748791 509
126857 483065 449
930367 84617 525
739532 984675 525
595210 652403 509
539489 429515 470
258784 172850 443
743749 373657 509
184786 491368 449
323593 208725 443
595976 794104 509
666020 888679 525
682548 922984 525
149647 1838 375
931012 113501 525
542638 8997 470
391117 626921 509
792103 678795 504
853474 61457 525
880781 128851 525
737640 471189 509
960781 246195 525
875543 748519 525
427844 810472 509
786810 956346 525
53053 313064 443
803546 373812 509
334435 240624 407
919542 80246 525
590388 860261 525
375987 269401 441
588074 505960 470
283636 233182 407
607249 706600 509
404958 473610 449
285959 280079 376
576593 903430 525
985196 588295 525
653253 166028 509
675499 57640 509
600370 84098 470
607717 788588 509
369703 983153 525
999010 621043 525
24936 780756 509
285837 149394 443
440778 631741 509
981715 74988 525
171634 836451 509
611154 476841 470
255777 506247 449
141308 101796 354
332496 478428 449
342912 300000 384
54651 326066 443
178954 647304 509
